tezt/_regressions/007.007-PsDELPH1.roll.out

./tezos-codec encode 007-PsDELPH1.roll from 2147483647
7fffffff

./tezos-codec decode 007-PsDELPH1.roll from 7fffffff
2147483647

./tezos-codec encode 007-PsDELPH1.roll from 0
00000000

./tezos-codec decode 007-PsDELPH1.roll from 00000000
0
