tezt/_regressions/007.007-PsDELPH1.raw_level.out

./tezos-codec encode 007-PsDELPH1.raw_level from 2147483647
7fffffff

./tezos-codec decode 007-PsDELPH1.raw_level from 7fffffff
2147483647

./tezos-codec encode 007-PsDELPH1.raw_level from 0
00000000

./tezos-codec decode 007-PsDELPH1.raw_level from 00000000
0
